2017-11-23 10:58:40,880 [DEBUG] - prefix: 192.168.2.1.24 not have route
2017-11-23 10:58:40,885 [DEBUG] - prefix: 203.151.40.0.24 not have route
2017-11-23 10:58:40,885 [DEBUG] - prefix: 192.111.2.21.24 not have route
2017-11-23 10:58:55,888 [DEBUG] - prefix: 192.168.2.1.24 not have route
2017-11-23 10:58:55,888 [DEBUG] - prefix: 203.151.40.0.24 not have route
2017-11-23 10:58:55,888 [DEBUG] - prefix: 192.111.2.21.24 not have route
2017-11-23 10:59:10,890 [DEBUG] - prefix: 192.168.2.1.24 not have route
2017-11-23 10:59:10,890 [DEBUG] - prefix: 203.151.40.0.24 not have route
2017-11-23 10:59:10,890 [DEBUG] - prefix: 192.111.2.21.24 not have route
2017-11-23 10:59:25,892 [DEBUG] - prefix: 192.168.2.1.24 not have route
2017-11-23 10:59:25,892 [DEBUG] - prefix: 203.151.40.0.24 not have route
2017-11-23 10:59:25,892 [DEBUG] - prefix: 192.111.2.21.24 not have route
2017-11-23 10:59:40,893 [DEBUG] - prefix: 192.168.2.1.24 not have route
2017-11-23 10:59:40,893 [DEBUG] - prefix: 203.151.40.0.24 not have route
2017-11-23 10:59:40,893 [DEBUG] - prefix: 192.111.2.21.24 not have route
2017-11-23 10:59:55,894 [DEBUG] - prefix: 192.168.2.1.24 not have route
2017-11-23 10:59:55,894 [DEBUG] - prefix: 203.151.40.0.24 not have route
2017-11-23 10:59:55,894 [DEBUG] - prefix: 192.111.2.21.24 not have route
2017-11-23 11:00:16,304 [DEBUG] - prefix: 192.168.1.1.24 not have route
2017-11-23 11:00:16,304 [DEBUG] - Start Move L3Out BD: bd_aTest_192.168.1.1_24(192.168.1.1.24) from TST to BTT
2017-11-23 11:00:17,457 [DEBUG] - Move L3Out BD: bd_aTest_192.168.1.1_24(192.168.1.1.24) success!
2017-11-23 11:00:22,853 [DEBUG] - prefix: 192.168.1.1.24 have route in BTT
2017-11-23 12:38:34,317 [DEBUG] - prefix: 192.168.1.1.24 not have route
2017-11-23 12:38:34,317 [DEBUG] - Start Move L3Out BD: bd_aTest_192.168.1.1_24(192.168.1.1.24) from BTT to TST
2017-11-23 12:38:35,441 [DEBUG] - Move L3Out BD: bd_aTest_192.168.1.1_24(192.168.1.1.24) success!
2017-11-23 12:38:40,798 [DEBUG] - prefix: 192.168.1.1.24 have route in TST
2017-11-23 12:55:26,659 [DEBUG] - prefix: 192.168.0.30.24 not have route
2017-11-23 12:55:41,661 [DEBUG] - prefix: 192.168.0.30.24 not have route
2017-11-23 12:55:56,662 [DEBUG] - prefix: 192.168.0.30.24 not have route
2017-11-23 12:56:11,665 [DEBUG] - prefix: 192.168.0.30.24 not have route
2017-11-23 12:56:26,667 [DEBUG] - prefix: 192.168.0.30.24 not have route
2017-11-23 12:56:41,668 [DEBUG] - prefix: 192.168.0.30.24 not have route
2017-11-23 12:56:56,670 [DEBUG] - prefix: 192.168.0.30.24 not have route
2017-11-23 12:57:11,672 [DEBUG] - prefix: 192.168.0.30.24 not have route
2017-11-23 12:57:26,673 [DEBUG] - prefix: 192.168.0.30.24 not have route
2017-11-23 13:01:37,802 [DEBUG] - Start Program
2017-11-23 13:01:52,568 [DEBUG] - Start Program
2017-11-23 13:01:56,199 [ERROR] - Apic (203.150.253.11) cannot connect.
2017-11-23 13:02:09,129 [DEBUG] - prefix: 192.168.1.1.24 not have route
2017-11-23 13:02:09,129 [DEBUG] - prefix: 192.168.2.1.24 not have route
2017-11-23 13:02:09,129 [DEBUG] - prefix: 203.151.40.0.24 not have route
2017-11-23 13:02:09,129 [DEBUG] - prefix: 192.111.2.21.24 not have route
2017-11-23 13:02:09,129 [DEBUG] - prefix: 192.168.0.30.24 not have route
2017-11-23 13:02:24,130 [DEBUG] - prefix: 192.168.1.1.24 not have route
2017-11-23 13:02:24,130 [DEBUG] - prefix: 192.168.2.1.24 not have route
2017-11-23 13:02:24,130 [DEBUG] - prefix: 203.151.40.0.24 not have route
2017-11-23 13:02:24,130 [DEBUG] - prefix: 192.111.2.21.24 not have route
2017-11-23 13:02:24,130 [DEBUG] - prefix: 192.168.0.30.24 not have route
2017-11-23 13:02:30,914 [DEBUG] - Start Program
2017-11-23 13:02:46,394 [DEBUG] - prefix: 192.168.1.1.24 not have route
2017-11-23 13:02:46,394 [DEBUG] - Start Move L3Out BD: bd_aTest_192.168.1.1_24(192.168.1.1.24) from TST to BTT
2017-11-23 13:02:47,497 [DEBUG] - Move L3Out BD: bd_aTest_192.168.1.1_24(192.168.1.1.24) success!
2017-11-23 13:02:47,859 [DEBUG] - prefix: 192.168.2.1.24 not have route
2017-11-23 13:02:47,859 [DEBUG] - prefix: 203.151.40.0.24 not have route
2017-11-23 13:02:47,859 [DEBUG] - prefix: 192.111.2.21.24 not have route
2017-11-23 13:02:47,859 [DEBUG] - prefix: 192.168.0.30.24 not have route
2017-11-23 13:02:52,865 [DEBUG] - prefix: 192.168.1.1.24 have route in BTT
2017-11-23 13:03:03,191 [DEBUG] - prefix: 192.168.2.1.24 not have route
2017-11-23 13:03:03,191 [DEBUG] - prefix: 203.151.40.0.24 not have route
2017-11-23 13:03:03,191 [DEBUG] - prefix: 192.111.2.21.24 not have route
2017-11-23 13:03:03,191 [DEBUG] - prefix: 192.168.0.30.24 not have route
2017-11-23 13:03:18,193 [DEBUG] - prefix: 192.168.2.1.24 not have route
2017-11-23 13:03:18,193 [DEBUG] - prefix: 203.151.40.0.24 not have route
2017-11-23 13:03:18,193 [DEBUG] - prefix: 192.111.2.21.24 not have route
2017-11-23 13:03:18,193 [DEBUG] - prefix: 192.168.0.30.24 not have route
2017-11-23 13:03:33,196 [DEBUG] - prefix: 192.168.2.1.24 not have route
2017-11-23 13:03:33,196 [DEBUG] - prefix: 203.151.40.0.24 not have route
2017-11-23 13:03:33,196 [DEBUG] - prefix: 192.111.2.21.24 not have route
2017-11-23 13:03:33,196 [DEBUG] - prefix: 192.168.0.30.24 not have route
2017-11-23 13:03:48,197 [DEBUG] - prefix: 192.168.2.1.24 not have route
2017-11-23 13:03:48,197 [DEBUG] - prefix: 203.151.40.0.24 not have route
2017-11-23 13:03:48,197 [DEBUG] - prefix: 192.111.2.21.24 not have route
2017-11-23 13:03:48,197 [DEBUG] - prefix: 192.168.0.30.24 not have route
2017-11-23 13:04:03,233 [DEBUG] - prefix: 192.168.2.1.24 not have route
2017-11-23 13:04:03,233 [DEBUG] - prefix: 203.151.40.0.24 not have route
2017-11-23 13:04:03,233 [DEBUG] - prefix: 192.111.2.21.24 not have route
2017-11-23 13:04:03,233 [DEBUG] - prefix: 192.168.0.30.24 not have route
2017-11-23 13:04:16,845 [DEBUG] - Start Program
2017-11-23 13:04:28,168 [DEBUG] - Start Program
2017-11-23 13:07:25,236 [DEBUG] - Start Program
2017-11-23 13:07:41,345 [DEBUG] - prefix: 192.168.1.1.24 not have route
2017-11-23 13:07:41,345 [DEBUG] - Start Move L3Out BD: bd_aTest_192.168.1.1_24(192.168.1.1.24) from BTT to TST
2017-11-23 13:07:42,462 [DEBUG] - Move L3Out BD: bd_aTest_192.168.1.1_24(192.168.1.1.24) success!
2017-11-23 13:07:42,813 [DEBUG] - prefix: 192.168.2.1.24 not have route
2017-11-23 13:07:42,813 [DEBUG] - prefix: 203.151.40.0.24 not have route
2017-11-23 13:07:42,813 [DEBUG] - prefix: 192.111.2.21.24 not have route
2017-11-23 13:07:42,813 [DEBUG] - prefix: 192.168.0.30.24 not have route
2017-11-23 13:07:43,923 [DEBUG] - Start Program
2017-11-23 13:07:59,424 [DEBUG] - prefix: 192.168.1.1.24 not have route
2017-11-23 13:07:59,424 [DEBUG] - Start Move L3Out BD: bd_aTest_192.168.1.1_24(192.168.1.1.24) from TST to BTT
2017-11-23 13:08:00,547 [DEBUG] - Move L3Out BD: bd_aTest_192.168.1.1_24(192.168.1.1.24) success!
2017-11-23 13:08:00,876 [DEBUG] - prefix: 192.168.2.1.24 not have route
2017-11-23 13:08:00,876 [DEBUG] - prefix: 203.151.40.0.24 not have route
2017-11-23 13:08:00,876 [DEBUG] - prefix: 192.111.2.21.24 not have route
2017-11-23 13:08:00,876 [DEBUG] - prefix: 192.168.0.30.24 not have route
2017-11-23 13:08:05,879 [DEBUG] - prefix: 192.168.1.1.24 have route in BTT
2017-11-23 13:08:16,241 [DEBUG] - prefix: 192.168.2.1.24 not have route
2017-11-23 13:08:16,241 [DEBUG] - prefix: 203.151.40.0.24 not have route
2017-11-23 13:08:16,241 [DEBUG] - prefix: 192.111.2.21.24 not have route
2017-11-23 13:08:16,241 [DEBUG] - prefix: 192.168.0.30.24 not have route
2017-11-23 13:08:31,243 [DEBUG] - prefix: 192.168.2.1.24 not have route
2017-11-23 13:08:31,243 [DEBUG] - prefix: 203.151.40.0.24 not have route
2017-11-23 13:08:31,243 [DEBUG] - prefix: 192.111.2.21.24 not have route
2017-11-23 13:08:31,243 [DEBUG] - prefix: 192.168.0.30.24 not have route
2017-11-23 13:08:46,245 [DEBUG] - prefix: 192.168.2.1.24 not have route
2017-11-23 13:08:46,245 [DEBUG] - prefix: 203.151.40.0.24 not have route
2017-11-23 13:08:46,245 [DEBUG] - prefix: 192.111.2.21.24 not have route
2017-11-23 13:08:46,245 [DEBUG] - prefix: 192.168.0.30.24 not have route
2017-11-23 13:08:58,284 [ERROR] - Sladin01: Lost Connect to SNMP Service
2017-11-23 13:09:01,251 [DEBUG] - prefix: 192.168.2.1.24 not have route
2017-11-23 13:09:01,252 [DEBUG] - prefix: 203.151.40.0.24 not have route
2017-11-23 13:09:01,252 [DEBUG] - prefix: 192.111.2.21.24 not have route
2017-11-23 13:09:01,252 [DEBUG] - prefix: 192.168.0.30.24 not have route
2017-11-23 13:09:16,254 [DEBUG] - prefix: 192.168.2.1.24 not have route
2017-11-23 13:09:16,254 [DEBUG] - prefix: 203.151.40.0.24 not have route
2017-11-23 13:09:16,254 [DEBUG] - prefix: 192.111.2.21.24 not have route
2017-11-23 13:09:16,254 [DEBUG] - prefix: 192.168.0.30.24 not have route
2017-11-23 13:09:31,255 [DEBUG] - prefix: 192.168.2.1.24 not have route
2017-11-23 13:09:31,255 [DEBUG] - prefix: 203.151.40.0.24 not have route
2017-11-23 13:09:31,255 [DEBUG] - prefix: 192.111.2.21.24 not have route
2017-11-23 13:09:31,255 [DEBUG] - prefix: 192.168.0.30.24 not have route
2017-11-23 13:09:46,257 [DEBUG] - prefix: 192.168.2.1.24 not have route
2017-11-23 13:09:46,257 [DEBUG] - prefix: 203.151.40.0.24 not have route
2017-11-23 13:09:46,257 [DEBUG] - prefix: 192.111.2.21.24 not have route
2017-11-23 13:09:46,257 [DEBUG] - prefix: 192.168.0.30.24 not have route
2017-11-23 13:09:56,179 [ERROR] - Sladin01: Lost Connect to SNMP Service
2017-11-23 13:10:01,258 [DEBUG] - prefix: 192.168.2.1.24 not have route
2017-11-23 13:10:01,258 [DEBUG] - prefix: 203.151.40.0.24 not have route
2017-11-23 13:10:01,258 [DEBUG] - prefix: 192.111.2.21.24 not have route
2017-11-23 13:10:01,258 [DEBUG] - prefix: 192.168.0.30.24 not have route
2017-11-23 13:10:01,537 [DEBUG] - Sladin01: Reconnect to SNMP Service Success!
