2017-11-29 09:05:55,140 [DEBUG] - Start Program
2017-11-29 09:06:11,836 [DEBUG] - prefix: 192.168.1.1.24 not have route
2017-11-29 09:06:11,836 [DEBUG] - Start Move L3Out BD: bd_aTest_192.168.1.1_24(192.168.1.1.24) from TST to BTT
2017-11-29 09:06:13,086 [DEBUG] - Move L3Out BD: bd_aTest_192.168.1.1_24(192.168.1.1.24) success!
2017-11-29 09:06:13,430 [DEBUG] - prefix: 192.168.2.1.24 not have route
2017-11-29 09:06:13,430 [DEBUG] - prefix: 203.151.40.0.24 not have route
2017-11-29 09:06:13,430 [DEBUG] - prefix: 192.111.2.21.24 not have route
2017-11-29 09:06:13,430 [DEBUG] - prefix: 192.168.0.30.24 not have route
2017-11-29 09:06:18,447 [DEBUG] - prefix: 192.168.1.1.24 have route in BTT
2017-11-29 09:06:28,822 [DEBUG] - prefix: 192.168.2.1.24 not have route
2017-11-29 09:06:28,822 [DEBUG] - prefix: 203.151.40.0.24 not have route
2017-11-29 09:06:28,822 [DEBUG] - prefix: 192.111.2.21.24 not have route
2017-11-29 09:06:28,822 [DEBUG] - prefix: 192.168.0.30.24 not have route
2017-11-29 09:06:43,834 [DEBUG] - prefix: 192.168.2.1.24 not have route
2017-11-29 09:06:43,834 [DEBUG] - prefix: 203.151.40.0.24 not have route
2017-11-29 09:06:43,834 [DEBUG] - prefix: 192.111.2.21.24 not have route
2017-11-29 09:06:43,834 [DEBUG] - prefix: 192.168.0.30.24 not have route
2017-11-29 09:15:36,083 [DEBUG] - Start Program
2017-11-29 09:26:40,562 [DEBUG] - Start Program
2017-11-29 09:26:55,064 [DEBUG] - prefix: 192.168.1.1.24 not have route
2017-11-29 09:26:55,064 [DEBUG] - Start Move L3Out BD: bd_aTest_192.168.1.1_24(192.168.1.1.24) from BTT to TST
2017-11-29 09:26:55,861 [DEBUG] - Move L3Out BD: bd_aTest_192.168.1.1_24(192.168.1.1.24) success!
2017-11-29 09:26:55,861 [DEBUG] - prefix: 192.168.2.1.24 not have route
2017-11-29 09:26:55,861 [DEBUG] - prefix: 203.151.40.0.24 not have route
2017-11-29 09:26:55,861 [DEBUG] - prefix: 192.111.2.21.24 not have route
2017-11-29 09:26:55,861 [DEBUG] - prefix: 192.168.0.30.24 not have route
2017-11-29 09:27:00,876 [DEBUG] - prefix: 192.168.1.1.24 have route in TST
2017-11-29 09:27:10,882 [DEBUG] - prefix: 192.168.2.1.24 not have route
2017-11-29 09:27:10,882 [DEBUG] - prefix: 203.151.40.0.24 not have route
2017-11-29 09:27:10,882 [DEBUG] - prefix: 192.111.2.21.24 not have route
2017-11-29 09:27:10,882 [DEBUG] - prefix: 192.168.0.30.24 not have route
2017-11-29 09:33:12,240 [DEBUG] - Start Program
2017-11-29 09:33:26,106 [DEBUG] - prefix: 192.168.1.1.24 not have route
2017-11-29 09:33:26,106 [DEBUG] - Start Move L3Out BD: bd_aTest_192.168.1.1_24(192.168.1.1.24) from TST to BTT
2017-11-29 09:33:26,996 [DEBUG] - Move L3Out BD: bd_aTest_192.168.1.1_24(192.168.1.1.24) success!
2017-11-29 09:33:26,996 [DEBUG] - prefix: 192.168.2.1.24 not have route
2017-11-29 09:33:26,996 [DEBUG] - prefix: 203.151.40.0.24 not have route
2017-11-29 09:33:26,996 [DEBUG] - prefix: 192.111.2.21.24 not have route
2017-11-29 09:33:26,996 [DEBUG] - prefix: 192.168.0.30.24 not have route
2017-11-29 09:33:31,998 [DEBUG] - prefix: 192.168.1.1.24 have route in BTT
2017-11-29 09:33:42,029 [DEBUG] - prefix: 192.168.2.1.24 not have route
2017-11-29 09:33:42,029 [DEBUG] - prefix: 203.151.40.0.24 not have route
2017-11-29 09:33:42,029 [DEBUG] - prefix: 192.111.2.21.24 not have route
2017-11-29 09:33:42,029 [DEBUG] - prefix: 192.168.0.30.24 not have route
2017-11-29 09:34:08,477 [DEBUG] - Start Program
2017-11-29 09:34:23,769 [DEBUG] - prefix: 192.168.1.1.24 not have route
2017-11-29 09:34:23,769 [DEBUG] - Start Move L3Out BD: bd_aTest_192.168.1.1_24(192.168.1.1.24) from BTT to TST
2017-11-29 09:34:24,676 [DEBUG] - Move L3Out BD: bd_aTest_192.168.1.1_24(192.168.1.1.24) success!
2017-11-29 09:34:24,676 [DEBUG] - prefix: 192.168.2.1.24 not have route
2017-11-29 09:34:24,676 [DEBUG] - prefix: 203.151.40.0.24 not have route
2017-11-29 09:34:24,676 [DEBUG] - prefix: 192.111.2.21.24 not have route
2017-11-29 09:34:24,676 [DEBUG] - prefix: 192.168.0.30.24 not have route
2017-11-29 09:34:29,686 [DEBUG] - prefix: 192.168.1.1.24 have route in TST
2017-11-29 09:34:39,701 [DEBUG] - prefix: 192.168.2.1.24 not have route
2017-11-29 09:34:39,701 [DEBUG] - prefix: 203.151.40.0.24 not have route
2017-11-29 09:34:39,701 [DEBUG] - prefix: 192.111.2.21.24 not have route
2017-11-29 09:34:39,701 [DEBUG] - prefix: 192.168.0.30.24 not have route
2017-11-29 09:56:01,346 [DEBUG] - Start Program
2017-11-29 09:56:16,137 [DEBUG] - prefix: 192.168.1.1.24 not have route
2017-11-29 09:56:16,137 [DEBUG] - Start Move L3Out BD: bd_aTest_192.168.1.1_24(192.168.1.1.24) from TST to BTT
2017-11-29 09:56:16,902 [DEBUG] - Move L3Out BD: bd_aTest_192.168.1.1_24(192.168.1.1.24) success!
2017-11-29 09:56:16,902 [DEBUG] - prefix: 192.168.2.1.24 not have route
2017-11-29 09:56:16,902 [DEBUG] - prefix: 203.151.40.0.24 not have route
2017-11-29 09:56:16,902 [DEBUG] - prefix: 192.111.2.21.24 not have route
2017-11-29 09:56:16,902 [DEBUG] - prefix: 192.168.0.30.24 not have route
2017-11-29 09:56:21,905 [DEBUG] - prefix: 192.168.1.1.24 have route in BTT
2017-11-29 09:56:31,919 [DEBUG] - prefix: 192.168.2.1.24 not have route
2017-11-29 09:56:31,919 [DEBUG] - prefix: 203.151.40.0.24 not have route
2017-11-29 09:56:31,919 [DEBUG] - prefix: 192.111.2.21.24 not have route
2017-11-29 09:56:31,919 [DEBUG] - prefix: 192.168.0.30.24 not have route
2017-11-29 09:56:46,943 [DEBUG] - prefix: 192.168.2.1.24 not have route
2017-11-29 09:56:46,943 [DEBUG] - prefix: 203.151.40.0.24 not have route
2017-11-29 09:56:46,943 [DEBUG] - prefix: 192.111.2.21.24 not have route
2017-11-29 09:56:46,943 [DEBUG] - prefix: 192.168.0.30.24 not have route
2017-11-29 09:57:01,949 [DEBUG] - prefix: 192.168.2.1.24 not have route
2017-11-29 09:57:01,949 [DEBUG] - prefix: 203.151.40.0.24 not have route
2017-11-29 09:57:01,949 [DEBUG] - prefix: 192.111.2.21.24 not have route
2017-11-29 09:57:01,949 [DEBUG] - prefix: 192.168.0.30.24 not have route
2017-11-29 10:00:43,330 [DEBUG] - Start Program
2017-11-29 10:01:02,238 [DEBUG] - prefix: 192.168.1.1.24 not have route
2017-11-29 10:01:02,238 [DEBUG] - Start Move L3Out BD: bd_aTest_192.168.1.1_24(192.168.1.1.24) from BTT to TST
2017-11-29 10:01:03,160 [DEBUG] - Move L3Out BD: bd_aTest_192.168.1.1_24(192.168.1.1.24) success!
2017-11-29 10:01:03,160 [DEBUG] - prefix: 192.168.2.1.24 not have route
2017-11-29 10:01:03,160 [DEBUG] - prefix: 203.151.40.0.24 not have route
2017-11-29 10:01:03,160 [DEBUG] - prefix: 192.111.2.21.24 not have route
2017-11-29 10:01:03,160 [DEBUG] - prefix: 192.168.0.30.24 not have route
2017-11-29 10:01:08,160 [DEBUG] - prefix: 192.168.1.1.24 have route in TST
2017-11-29 10:17:38,453 [DEBUG] - Start Program
2017-11-29 10:17:52,245 [DEBUG] - prefix: 192.168.1.1.24 not have route
2017-11-29 10:17:52,245 [DEBUG] - Start Move L3Out BD: bd_aTest_192.168.1.1_24(192.168.1.1.24) from TST to BTT
2017-11-29 10:17:53,135 [DEBUG] - Move L3Out BD: bd_aTest_192.168.1.1_24(192.168.1.1.24) success!
2017-11-29 10:17:53,135 [DEBUG] - prefix: 192.168.2.1.24 not have route
2017-11-29 10:17:53,135 [DEBUG] - prefix: 203.151.40.0.24 not have route
2017-11-29 10:17:53,135 [DEBUG] - prefix: 192.111.2.21.24 not have route
2017-11-29 10:17:53,135 [DEBUG] - prefix: 192.168.0.30.24 not have route
2017-11-29 10:17:58,136 [DEBUG] - prefix: 192.168.1.1.24 have route in BTT
2017-11-29 10:18:08,165 [DEBUG] - prefix: 192.168.2.1.24 not have route
2017-11-29 10:18:08,165 [DEBUG] - prefix: 203.151.40.0.24 not have route
2017-11-29 10:18:08,165 [DEBUG] - prefix: 192.111.2.21.24 not have route
2017-11-29 10:18:08,165 [DEBUG] - prefix: 192.168.0.30.24 not have route
2017-11-29 10:18:23,197 [DEBUG] - prefix: 192.168.2.1.24 not have route
2017-11-29 10:18:23,197 [DEBUG] - prefix: 203.151.40.0.24 not have route
2017-11-29 10:18:23,197 [DEBUG] - prefix: 192.111.2.21.24 not have route
2017-11-29 10:18:23,197 [DEBUG] - prefix: 192.168.0.30.24 not have route
2017-11-29 10:28:38,710 [DEBUG] - Start Program
2017-11-29 10:32:43,878 [DEBUG] - Start Program
2017-11-29 10:32:57,627 [DEBUG] - prefix: 192.168.1.1.24 not have route
2017-11-29 10:32:57,627 [DEBUG] - Start Move L3Out BD: bd_aTest_192.168.1.1_24(192.168.1.1.24) from BTT to TST
2017-11-29 10:32:58,502 [DEBUG] - Move L3Out BD: bd_aTest_192.168.1.1_24(192.168.1.1.24) success!
2017-11-29 10:32:58,502 [DEBUG] - prefix: 192.168.2.1.24 not have route
2017-11-29 10:32:58,502 [DEBUG] - prefix: 203.151.40.0.24 not have route
2017-11-29 10:32:58,502 [DEBUG] - prefix: 192.111.2.21.24 not have route
2017-11-29 10:32:58,502 [DEBUG] - prefix: 192.168.0.30.24 not have route
2017-11-29 10:33:03,504 [DEBUG] - prefix: 192.168.1.1.24 have route in TST
2017-11-29 10:33:13,532 [DEBUG] - prefix: 192.168.2.1.24 not have route
2017-11-29 10:33:13,532 [DEBUG] - prefix: 203.151.40.0.24 not have route
2017-11-29 10:33:13,532 [DEBUG] - prefix: 192.111.2.21.24 not have route
2017-11-29 10:33:13,532 [DEBUG] - prefix: 192.168.0.30.24 not have route
2017-11-29 10:38:19,214 [DEBUG] - Start Program
2017-11-29 10:38:33,575 [DEBUG] - prefix: 192.168.1.1.24 not have route
2017-11-29 10:38:33,575 [DEBUG] - Start Move L3Out BD: bd_aTest_192.168.1.1_24(192.168.1.1.24) from TST to BTT
2017-11-29 10:38:34,481 [DEBUG] - Move L3Out BD: bd_aTest_192.168.1.1_24(192.168.1.1.24) success!
2017-11-29 10:38:34,481 [DEBUG] - prefix: 192.168.2.1.24 not have route
2017-11-29 10:38:34,481 [DEBUG] - prefix: 203.151.40.0.24 not have route
2017-11-29 10:38:34,481 [DEBUG] - prefix: 192.111.2.21.24 not have route
2017-11-29 10:38:34,481 [DEBUG] - prefix: 192.168.0.30.24 not have route
2017-11-29 10:38:39,482 [DEBUG] - prefix: 192.168.1.1.24 have route in BTT
2017-11-29 10:39:55,321 [DEBUG] - Start Program
2017-11-29 10:40:10,063 [DEBUG] - prefix: 192.168.1.1.24 not have route
2017-11-29 10:40:10,063 [DEBUG] - Start Move L3Out BD: bd_aTest_192.168.1.1_24(192.168.1.1.24) from BTT to TST
2017-11-29 10:40:10,970 [DEBUG] - Move L3Out BD: bd_aTest_192.168.1.1_24(192.168.1.1.24) success!
2017-11-29 10:40:10,970 [DEBUG] - prefix: 192.168.2.1.24 not have route
2017-11-29 10:40:10,970 [DEBUG] - prefix: 203.151.40.0.24 not have route
2017-11-29 10:40:10,970 [DEBUG] - prefix: 192.111.2.21.24 not have route
2017-11-29 10:40:10,970 [DEBUG] - prefix: 192.168.0.30.24 not have route
2017-11-29 10:40:15,985 [DEBUG] - prefix: 192.168.1.1.24 have route in TST
2017-11-29 10:40:26,009 [DEBUG] - prefix: 192.168.2.1.24 not have route
2017-11-29 10:40:26,009 [DEBUG] - prefix: 203.151.40.0.24 not have route
2017-11-29 10:40:26,009 [DEBUG] - prefix: 192.111.2.21.24 not have route
2017-11-29 10:40:26,009 [DEBUG] - prefix: 192.168.0.30.24 not have route
2017-11-29 10:46:37,754 [DEBUG] - Start Program
2017-11-29 10:46:51,661 [DEBUG] - prefix: 192.168.1.1.24 not have route
2017-11-29 10:46:51,661 [DEBUG] - Start Move L3Out BD: bd_aTest_192.168.1.1_24(192.168.1.1.24) from TST to BTT
2017-11-29 10:46:52,552 [DEBUG] - Move L3Out BD: bd_aTest_192.168.1.1_24(192.168.1.1.24) success!
2017-11-29 10:46:52,552 [DEBUG] - prefix: 192.168.2.1.24 not have route
2017-11-29 10:46:52,552 [DEBUG] - prefix: 203.151.40.0.24 not have route
2017-11-29 10:46:52,552 [DEBUG] - prefix: 192.111.2.21.24 not have route
2017-11-29 10:46:52,552 [DEBUG] - prefix: 192.168.0.30.24 not have route
2017-11-29 10:46:57,568 [DEBUG] - prefix: 192.168.1.1.24 have route in BTT
2017-11-29 10:49:34,015 [DEBUG] - Start Program
2017-11-29 10:49:48,791 [DEBUG] - prefix: 192.168.1.1.24 not have route
2017-11-29 10:49:48,791 [DEBUG] - Start Move L3Out BD: bd_aTest_192.168.1.1_24(192.168.1.1.24) from BTT to TST
2017-11-29 10:49:49,697 [DEBUG] - Move L3Out BD: bd_aTest_192.168.1.1_24(192.168.1.1.24) success!
2017-11-29 10:49:49,697 [DEBUG] - prefix: 192.168.2.1.24 not have route
2017-11-29 10:49:49,697 [DEBUG] - prefix: 203.151.40.0.24 not have route
2017-11-29 10:49:49,697 [DEBUG] - prefix: 192.111.2.21.24 not have route
2017-11-29 10:49:49,697 [DEBUG] - prefix: 192.168.0.30.24 not have route
2017-11-29 10:49:54,702 [DEBUG] - prefix: 192.168.1.1.24 have route in TST
2017-11-29 10:50:04,739 [DEBUG] - prefix: 192.168.2.1.24 not have route
2017-11-29 10:50:04,739 [DEBUG] - prefix: 203.151.40.0.24 not have route
2017-11-29 10:50:04,739 [DEBUG] - prefix: 192.111.2.21.24 not have route
2017-11-29 10:50:04,739 [DEBUG] - prefix: 192.168.0.30.24 not have route
2017-11-29 10:50:19,756 [DEBUG] - prefix: 192.168.2.1.24 not have route
2017-11-29 10:50:19,756 [DEBUG] - prefix: 203.151.40.0.24 not have route
2017-11-29 10:50:19,756 [DEBUG] - prefix: 192.111.2.21.24 not have route
2017-11-29 10:50:19,756 [DEBUG] - prefix: 192.168.0.30.24 not have route
2017-11-29 10:50:34,788 [DEBUG] - prefix: 192.168.2.1.24 not have route
2017-11-29 10:50:34,788 [DEBUG] - prefix: 203.151.40.0.24 not have route
2017-11-29 10:50:34,788 [DEBUG] - prefix: 192.111.2.21.24 not have route
2017-11-29 10:50:34,788 [DEBUG] - prefix: 192.168.0.30.24 not have route
2017-11-29 10:50:49,831 [DEBUG] - prefix: 192.168.2.1.24 not have route
2017-11-29 10:50:49,831 [DEBUG] - prefix: 203.151.40.0.24 not have route
2017-11-29 10:50:49,831 [DEBUG] - prefix: 192.111.2.21.24 not have route
2017-11-29 10:50:49,831 [DEBUG] - prefix: 192.168.0.30.24 not have route
2017-11-29 10:51:04,857 [DEBUG] - prefix: 192.168.2.1.24 not have route
2017-11-29 10:51:04,857 [DEBUG] - prefix: 203.151.40.0.24 not have route
2017-11-29 10:51:04,857 [DEBUG] - prefix: 192.111.2.21.24 not have route
2017-11-29 10:51:04,857 [DEBUG] - prefix: 192.168.0.30.24 not have route
2017-11-29 10:51:40,217 [DEBUG] - Start Program
2017-11-29 10:51:59,486 [DEBUG] - prefix: 192.168.1.1.24 not have route
2017-11-29 10:51:59,486 [DEBUG] - Start Move L3Out BD: bd_aTest_192.168.1.1_24(192.168.1.1.24) from TST to BTT
2017-11-29 10:52:00,376 [DEBUG] - Move L3Out BD: bd_aTest_192.168.1.1_24(192.168.1.1.24) success!
2017-11-29 10:52:00,376 [DEBUG] - prefix: 192.168.2.1.24 not have route
2017-11-29 10:52:00,376 [DEBUG] - prefix: 203.151.40.0.24 not have route
2017-11-29 10:52:00,376 [DEBUG] - prefix: 192.111.2.21.24 not have route
2017-11-29 10:52:00,376 [DEBUG] - prefix: 192.168.0.30.24 not have route
2017-11-29 10:52:05,386 [DEBUG] - prefix: 192.168.1.1.24 have route in BTT
2017-11-29 10:52:15,402 [DEBUG] - prefix: 192.168.2.1.24 not have route
2017-11-29 10:52:15,402 [DEBUG] - prefix: 203.151.40.0.24 not have route
2017-11-29 10:52:15,402 [DEBUG] - prefix: 192.111.2.21.24 not have route
2017-11-29 10:52:15,402 [DEBUG] - prefix: 192.168.0.30.24 not have route
2017-11-29 10:52:30,421 [DEBUG] - prefix: 192.168.2.1.24 not have route
2017-11-29 10:52:30,421 [DEBUG] - prefix: 203.151.40.0.24 not have route
2017-11-29 10:52:30,421 [DEBUG] - prefix: 192.111.2.21.24 not have route
2017-11-29 10:52:30,421 [DEBUG] - prefix: 192.168.0.30.24 not have route
2017-11-29 13:37:31,680 [DEBUG] - Start Program
2017-11-29 13:38:39,731 [DEBUG] - Start Program
2017-11-29 13:38:58,499 [DEBUG] - prefix: 192.168.1.1.24 not have route
2017-11-29 13:38:58,499 [DEBUG] - Start Move L3Out BD: bd_aTest_192.168.1.1_24(192.168.1.1.24) from BTT to TST
2017-11-29 13:38:59,281 [DEBUG] - Move L3Out BD: bd_aTest_192.168.1.1_24(192.168.1.1.24) success!
2017-11-29 13:38:59,281 [DEBUG] - prefix: 192.168.2.1.24 not have route
2017-11-29 13:38:59,281 [DEBUG] - prefix: 203.151.40.0.24 not have route
2017-11-29 13:38:59,281 [DEBUG] - prefix: 192.111.2.21.24 not have route
2017-11-29 13:38:59,281 [DEBUG] - prefix: 192.168.0.30.24 not have route
2017-11-29 13:40:07,292 [DEBUG] - Start Program
2017-11-29 13:40:55,716 [DEBUG] - Start Program
2017-11-29 13:41:23,700 [DEBUG] - Start Program
2017-11-29 13:41:43,151 [DEBUG] - prefix: 192.168.1.1.24 not have route
2017-11-29 13:41:43,151 [DEBUG] - Start Move L3Out BD: bd_aTest_192.168.1.1_24(192.168.1.1.24) from TST to BTT
2017-11-29 13:41:43,916 [DEBUG] - Move L3Out BD: bd_aTest_192.168.1.1_24(192.168.1.1.24) success!
2017-11-29 13:41:43,916 [DEBUG] - prefix: 192.168.2.1.24 not have route
2017-11-29 13:41:43,916 [DEBUG] - prefix: 203.151.40.0.24 not have route
2017-11-29 13:41:43,916 [DEBUG] - prefix: 192.111.2.21.24 not have route
2017-11-29 13:41:43,916 [DEBUG] - prefix: 192.168.0.30.24 not have route
2017-11-29 13:41:48,917 [DEBUG] - prefix: 192.168.1.1.24 have route in BTT
2017-11-29 13:41:58,942 [DEBUG] - prefix: 192.168.2.1.24 not have route
2017-11-29 13:41:58,942 [DEBUG] - prefix: 203.151.40.0.24 not have route
2017-11-29 13:41:58,942 [DEBUG] - prefix: 192.111.2.21.24 not have route
2017-11-29 13:41:58,942 [DEBUG] - prefix: 192.168.0.30.24 not have route
2017-11-29 13:42:13,960 [DEBUG] - prefix: 192.168.2.1.24 not have route
2017-11-29 13:42:13,960 [DEBUG] - prefix: 203.151.40.0.24 not have route
2017-11-29 13:42:13,960 [DEBUG] - prefix: 192.111.2.21.24 not have route
2017-11-29 13:42:13,960 [DEBUG] - prefix: 192.168.0.30.24 not have route
2017-11-29 13:48:49,529 [DEBUG] - Start Program
2017-11-29 13:49:06,323 [DEBUG] - Start Program
2017-11-29 13:57:49,934 [DEBUG] - Start Program
2017-11-29 14:07:18,962 [DEBUG] - Start Program
2017-11-29 14:08:48,695 [DEBUG] - Start Program
2017-11-29 14:11:26,110 [DEBUG] - Start Program
2017-11-29 14:12:20,172 [DEBUG] - Start Program
2017-11-29 14:17:39,698 [DEBUG] - Start Program
2017-11-29 14:43:49,163 [DEBUG] - Start Program
2017-11-29 14:45:10,357 [DEBUG] - Start Program
2017-11-29 14:49:28,738 [DEBUG] - Start Program
2017-11-29 14:49:48,545 [DEBUG] - prefix: 192.168.1.1.24 not have route
2017-11-29 14:49:48,545 [DEBUG] - Start Move L3Out BD: bd_aTest_192.168.1.1_24(192.168.1.1.24) from BTT to TST
2017-11-29 14:49:49,357 [DEBUG] - Move L3Out BD: bd_aTest_192.168.1.1_24(192.168.1.1.24) success!
2017-11-29 14:49:49,357 [DEBUG] - prefix: 192.168.2.1.24 not have route
2017-11-29 14:49:49,357 [DEBUG] - prefix: 203.151.40.0.24 not have route
2017-11-29 14:49:49,357 [DEBUG] - prefix: 192.111.2.21.24 not have route
2017-11-29 14:49:49,357 [DEBUG] - prefix: 192.168.0.30.24 not have route
2017-11-29 14:49:54,373 [DEBUG] - prefix: 192.168.1.1.24 have route in TST
2017-11-29 14:50:04,394 [DEBUG] - prefix: 192.168.2.1.24 not have route
2017-11-29 14:50:04,394 [DEBUG] - prefix: 203.151.40.0.24 not have route
2017-11-29 14:50:04,394 [DEBUG] - prefix: 192.111.2.21.24 not have route
2017-11-29 14:50:04,394 [DEBUG] - prefix: 192.168.0.30.24 not have route
2017-11-29 14:50:19,418 [DEBUG] - prefix: 192.168.2.1.24 not have route
2017-11-29 14:50:19,418 [DEBUG] - prefix: 203.151.40.0.24 not have route
2017-11-29 14:50:19,418 [DEBUG] - prefix: 192.111.2.21.24 not have route
2017-11-29 14:50:19,418 [DEBUG] - prefix: 192.168.0.30.24 not have route
2017-11-29 14:50:34,452 [DEBUG] - prefix: 192.168.2.1.24 not have route
2017-11-29 14:50:34,452 [DEBUG] - prefix: 203.151.40.0.24 not have route
2017-11-29 14:50:34,452 [DEBUG] - prefix: 192.111.2.21.24 not have route
2017-11-29 14:50:34,452 [DEBUG] - prefix: 192.168.0.30.24 not have route
2017-11-29 14:50:49,468 [DEBUG] - prefix: 192.168.2.1.24 not have route
2017-11-29 14:50:49,468 [DEBUG] - prefix: 203.151.40.0.24 not have route
2017-11-29 14:50:49,468 [DEBUG] - prefix: 192.111.2.21.24 not have route
2017-11-29 14:50:49,468 [DEBUG] - prefix: 192.168.0.30.24 not have route
2017-11-29 14:51:04,484 [DEBUG] - prefix: 192.168.2.1.24 not have route
2017-11-29 14:51:04,484 [DEBUG] - prefix: 203.151.40.0.24 not have route
2017-11-29 14:51:04,484 [DEBUG] - prefix: 192.111.2.21.24 not have route
2017-11-29 14:51:04,484 [DEBUG] - prefix: 192.168.0.30.24 not have route
2017-11-29 14:51:19,493 [DEBUG] - prefix: 192.168.2.1.24 not have route
2017-11-29 14:51:19,493 [DEBUG] - prefix: 203.151.40.0.24 not have route
2017-11-29 14:51:19,493 [DEBUG] - prefix: 192.111.2.21.24 not have route
2017-11-29 14:51:19,493 [DEBUG] - prefix: 192.168.0.30.24 not have route
2017-11-29 14:51:34,540 [DEBUG] - prefix: 192.168.2.1.24 not have route
2017-11-29 14:51:34,540 [DEBUG] - prefix: 203.151.40.0.24 not have route
2017-11-29 14:51:34,540 [DEBUG] - prefix: 192.111.2.21.24 not have route
2017-11-29 14:51:34,540 [DEBUG] - prefix: 192.168.0.30.24 not have route
2017-11-29 14:51:49,553 [DEBUG] - prefix: 192.168.2.1.24 not have route
2017-11-29 14:51:49,553 [DEBUG] - prefix: 203.151.40.0.24 not have route
2017-11-29 14:51:49,553 [DEBUG] - prefix: 192.111.2.21.24 not have route
2017-11-29 14:51:49,553 [DEBUG] - prefix: 192.168.0.30.24 not have route
2017-11-29 14:54:00,087 [DEBUG] - Start Program
2017-11-29 14:57:33,468 [DEBUG] - Start Program
